3 Exprimiendo una base de datos: obtener datos útiles. | Métodos Cuantitativos para Relaciones Internacionales
…
mean(aprobacion[aprobacion$presidente=="Fernando de la Rúa",]$aprobacion_neta)
## [1] -0.9238752
# Y tendríamos que hacer esto 69 veces más!!

Por suerte, tenemos una alternativa: la combinación group_by + summarise. Con estos comandos del paquete dplyr tenemos esas órdenes con mucho menos líneas. En esta forma, se escribe menos (algo que se agradece cuando se tienen que programar codigos enormes) y podemos sacar muchos cálculos, no solo la media. Para obtener los datos de la aprobación promedio de los presidentes, el código sería el siguiente:

aprobacion %>% 
  group_by(presidente) %>% 
  summarise(mean(aprobacion_neta))

## # A tibble: 70 × 2
##    presidente       `mean(aprobacion_neta)`
##    <chr>                              <dbl>
##  1 Abel Pacheco                       16.5 
##  2 Alan García                       -19.3 
##  3 Alberto Fujimori                  -27.3 
##  4 Alejandro Toledo                  -47.6 
##  5 Alfonso Portillo                  -20.2 
##  6 Alfredo Palacio                    14.8 
##  7 Álvaro Colom                       15.1 
##  8 Álvaro Uribe                       46.1 
##  9 Andrés Pastrana                   -23.4 
## 10 Arnoldo Alemán                      1.29
## # … with 60 more rows
## # ℹ Use `print(n = ...)` to see more rows

Esto tiene la ventaja además de que nos puede crear una tabla con el promedio de aprobación por presidente, su género y país donde gobiernan, en este punto incluso podemos guardar esta tabla para usarla después:

aprobacion_media_presidente <- aprobacion %>% 
  group_by(pais, presidente, presidente_genero) %>% 
  summarise(mean(aprobacion_neta))

## `summarise()` has grouped output by 'pais', 'presidente'. You can override
## using the `.groups` argument.

aprobacion_media_presidente

## # A tibble: 70 × 4
## # Groups:   pais, presidente [70]
##    pais      presidente                     presidente_genero mean(aprobacion_…¹
##    <chr>     <chr>                          <chr>                          <dbl>
##  1 Argentina Cristina Fernández de Kirchner Femenino                       8.98 
##  2 Argentina Eduardo Alberto Duhalde        Masculino                     -6.69 
##  3 Argentina Fernando de la Rúa             Masculino                     -0.924
##  4 Argentina Néstor Carlos Kirchner         Masculino                     44.3  
##  5 Bolivia   Carlos Mesa                    Masculino                      4.43 
##  6 Bolivia   Eduardo Rodríguez Veltzé       Masculino                     27.5  
##  7 Bolivia   Evo Morales                    Masculino                     22.3  
##  8 Bolivia   Gonzalo Sánchez de Lozada      Masculino                    -10.2  
##  9 Bolivia   Hugo Banzer                    Masculino                    -17.2  
## 10 Bolivia   Jorge Quiroga Ramírez          Masculino                    -14.2  
## # … with 60 more rows, and abbreviated variable name ¹​`mean(aprobacion_neta)`
## # ℹ Use `print(n = ...)` to see more rows

Nótese que en los nombres de las variables, la aprobación promedio aparece con el nombre de la función que usamos sobre la variable aprobacion_neta con mean(aprobacion_neta). Esto se logra poniendole el nombre que consideremos más conveniente dentro del comando summarise de esta manera:

aprobacion_media_presidente <- aprobacion %>% 
  group_by(pais, presidente, presidente_genero) %>% 
  summarise(aprobacion_media=mean(aprobacion_neta))

## `summarise()` has grouped output by 'pais', 'presidente'. You can override
## using the `.groups` argument.

aprobacion_media_presidente

## # A tibble: 70 × 4
## # Groups:   pais, presidente [70]
##    pais      presidente                     presidente_genero aprobacion_media
##    <chr>     <chr>                          <chr>                        <dbl>
##  1 Argentina Cristina Fernández de Kirchner Femenino                     8.98 
##  2 Argentina Eduardo Alberto Duhalde        Masculino                   -6.69 
##  3 Argentina Fernando de la Rúa             Masculino                   -0.924
##  4 Argentina Néstor Carlos Kirchner         Masculino                   44.3  
##  5 Bolivia   Carlos Mesa                    Masculino                    4.43 
##  6 Bolivia   Eduardo Rodríguez Veltzé       Masculino                   27.5  
##  7 Bolivia   Evo Morales                    Masculino                   22.3  
##  8 Bolivia   Gonzalo Sánchez de Lozada      Masculino                  -10.2  
##  9 Bolivia   Hugo Banzer                    Masculino                  -17.2  
## 10 Bolivia   Jorge Quiroga Ramírez          Masculino                  -14.2  
## # … with 60 more rows
## # ℹ Use `print(n = ...)` to see more rows
Pero además, tenemos la opción de obtener una tabla resumen de más de una variable. En este caso, podemos recuperar también el año de inicio y de término de su gestión, así como variables como corrupción, desempleo, entre otras. El límite es la información de la base de datos. Aprovecharemos para primero renombrar unas variables mal codificadas. Cuando analicemos datos directamente de sus fuentes, será muy comun tener que corregir algunos errores y en generar limpiar la base de datos antes de poder utilizarla:

aprobacion %>% 
  group_by(pais, presidente, presidente_genero) %>% 
  summarise(desempleo_promedio=mean(desempleo),
            corrupcion_promedio=mean(corrupcion),
            aprobacion_promedio=mean(aprobacion_neta),
            anio_inicio=min(anio),
            anio_termino=max(anio)
  )

## `summarise()` has grouped output by 'pais', 'presidente'. You can override
## using the `.groups` argument.

## # A tibble: 70 × 8
## # Groups:   pais, presidente [70]
##    pais      presidente          presi…¹ desem…² corru…³ aprob…⁴ anio_…⁵ anio_…⁶
##    <chr>     <chr>               <chr>     <dbl>   <dbl>   <dbl>   <dbl>   <dbl>
##  1 Argentina Cristina Fernández… Femeni…    7.56    51.7   8.98     2008    2014
##  2 Argentina Eduardo Alberto Du… Mascul…   18.2     33.4  -6.69     2002    2003
##  3 Argentina Fernando de la Rúa  Mascul…   16.6     14.0  -0.924    2000    2001
##  4 Argentina Néstor Carlos Kirc… Mascul…   11.4     50.1  44.3      2003    2007
##  5 Bolivia   Carlos Mesa         Mascul…    4.60    52.0   4.43     2003    2005
##  6 Bolivia   Eduardo Rodríguez … Mascul…    5.08    38.1  27.5      2005    2005
##  7 Bolivia   Evo Morales         Mascul…    2.89    39.3  22.3      2006    2014
##  8 Bolivia   Gonzalo Sánchez de… Mascul…    5.07    60.5 -10.2      2002    2003
##  9 Bolivia   Hugo Banzer         Mascul…    4.78    60.5 -17.2      2000    2001
## 10 Bolivia   Jorge Quiroga Ramí… Mascul…    5.40    60.5 -14.2      2001    2002
## # … with 60 more rows, and abbreviated variable names ¹​presidente_genero,
## #   ²​desempleo_promedio, ³​corrupcion_promedio, ⁴​aprobacion_promedio,
## #   ⁵​anio_inicio, ⁶​anio_termino
## # ℹ Use `print(n = ...)` to see more rows
…
aprobacion %>% 
  group_by(pais, presidente, presidente_genero) %>% 
  summarise(desempleo_promedio=mean(desempleo),
            corrupcion_promedio=mean(corrupcion),
            aprobacion_promedio=mean(aprobacion_neta),
            anio_inicio=min(anio),
            anio_termino=max(anio)
  ) %>% ungroup %>% 
  arrange(aprobacion_promedio)

## `summarise()` has grouped output by 'pais', 'presidente'. You can override
## using the `.groups` argument.

## # A tibble: 70 × 8
##    pais      presidente          presi…¹ desem…² corru…³ aprob…⁴ anio_…⁵ anio_…⁶
##    <chr>     <chr>               <chr>     <dbl>   <dbl>   <dbl>   <dbl>   <dbl>
##  1 Perú      Alejandro Toledo    Mascul…    5.10   36.6    -47.6    2001    2006
##  2 Perú      Alberto Fujimori    Mascul…    5.76   12.0    -27.3    2000    2000
##  3 Colombia  Andrés Pastrana     Mascul…   17.4    40.0    -23.4    2000    2002
##  4 Guatemala Alfonso Portillo    Mascul…    2.31   74.7    -20.2    2000    2003
##  5 Paraguay  Luis Ángel González Mascul…    8.00   77.5    -19.5    2000    2003
##  6 Perú      Alan García         Mascul…    3.90   38.5    -19.3    2006    2011
##  7 Venezuela Nicolás Maduro      Mascul…    7.20   94.4    -18.8    2013    2014
##  8 Bolivia   Hugo Banzer         Mascul…    4.78   60.5    -17.2    2000    2001
##  9 Chile     Sebastián Piñera E… Mascul…    7.00    4.05   -15.7    2010    2014
## 10 Venezuela Hugo Chávez         Mascul…   10.7    87.3    -14.3    2000    2013
## # … with 60 more rows, and abbreviated variable names ¹​presidente_genero,
## #   ²​desempleo_promedio, ³​corrupcion_promedio, ⁴​aprobacion_promedio,
## #   ⁵​anio_inicio, ⁶​anio_termino
## # ℹ Use `print(n = ...)` to see more rows
…
## [1] 6.711468e-05 6.711468e-05 6.711468e-05 6.711468e-05 7.099462e-05
## [6] 7.099462e-05

Como puede verse, tiene que llamarse la base de datos junto con su respectiva variable cada que queremos llamar un componente, aunque sea la misma base de datos. Estas operaciones se pueden simplificar utilizando mutate:

### mutate

aprobacion <- aprobacion %>% 
  mutate(log_pib=log(pib),
         pib_per_capita = pib / poblacion )

aprobacion

## # A tibble: 1,020 × 13
##    pais     anio trime…¹ presi…² presi…³ aprob…⁴ corru…⁵     pib pobla…⁶ desem…⁷
##    <chr>   <dbl>   <dbl> <chr>   <chr>     <dbl>   <dbl>   <dbl>   <dbl>   <dbl>
##  1 Argent…  2000       1 Fernan… Mascul…   40.1     14.0 5.52e11  3.71e7    15  
##  2 Argent…  2000       2 Fernan… Mascul…   16.4     14.0 5.52e11  3.71e7    15  
##  3 Argent…  2000       3 Fernan… Mascul…   24.0     14.0 5.52e11  3.71e7    15  
##  4 Argent…  2000       4 Fernan… Mascul…  -18.3     14.0 5.52e11  3.71e7    15  
##  5 Argent…  2001       1 Fernan… Mascul…   -6.97    14.0 5.28e11  3.75e7    18.3
##  6 Argent…  2001       2 Fernan… Mascul…  -20.1     14.0 5.28e11  3.75e7    18.3
##  7 Argent…  2001       3 Fernan… Mascul…  -19.4     14.0 5.28e11  3.75e7    18.3
##  8 Argent…  2001       4 Fernan… Mascul…  -23.2     14.0 5.28e11  3.75e7    18.3
##  9 Argent…  2002       1 Eduard… Mascul…   -2.01    25.0 4.70e11  3.79e7    17.9
## 10 Argent…  2002       2 Eduard… Mascul…  -20.1     25.0 4.70e11  3.79e7    17.9
## # … with 1,010 more rows, 3 more variables: crecimiento_pib <dbl>,
## #   log_pib <dbl>, pib_per_capita <dbl>, and abbreviated variable names
## #   ¹​trimestre, ²​presidente, ³​presidente_genero, ⁴​aprobacion_neta, ⁵​corrupcion,
## #   ⁶​poblacion, ⁷​desempleo
## # ℹ Use `print(n = ...)` to see more rows, and `colnames()` to see all variable names
3.4.2 group_by + mutate

A veces necesitamos calcular una variable agrupada pero en vez de presentarla en una tabla como resumen, que nos aparezca en cada renglón. Pensemos que queremos calcular la diferencia entre la aprobación media de un presidente y su aprobacion en cada trimestre, lo cual nos daría una idea más clara de la fluctuacion de su aprobación en relación con su periodo completo. Entonces tendríamos que hacer:

# calculamos la aprobacion por presidente
aprobacion_presidente <- aprobacion %>% group_by(presidente) %>% 
  summarise(aprobacion_media=mean(aprobacion_neta))

# unimos este resultado a nuestra base de datos aprobacion con el comando left join
aprobacion <- left_join(aprobacion, aprobacion_presidente, by="presidente")

# calculamos la diferencia respecto a la media 
aprobacion %>% mutate(diferencia_aprobacion=aprobacion_media-aprobacion_neta)

## # A tibble: 1,020 × 15
##    pais     anio trime…¹ presi…² presi…³ aprob…⁴ corru…⁵     pib pobla…⁶ desem…⁷
##    <chr>   <dbl>   <dbl> <chr>   <chr>     <dbl>   <dbl>   <dbl>   <dbl>   <dbl>
##  1 Argent…  2000       1 Fernan… Mascul…   40.1     14.0 5.52e11  3.71e7    15  
##  2 Argent…  2000       2 Fernan… Mascul…   16.4     14.0 5.52e11  3.71e7    15  
##  3 Argent…  2000       3 Fernan… Mascul…   24.0     14.0 5.52e11  3.71e7    15  
##  4 Argent…  2000       4 Fernan… Mascul…  -18.3     14.0 5.52e11  3.71e7    15  
##  5 Argent…  2001       1 Fernan… Mascul…   -6.97    14.0 5.28e11  3.75e7    18.3
##  6 Argent…  2001       2 Fernan… Mascul…  -20.1     14.0 5.28e11  3.75e7    18.3
##  7 Argent…  2001       3 Fernan… Mascul…  -19.4     14.0 5.28e11  3.75e7    18.3
##  8 Argent…  2001       4 Fernan… Mascul…  -23.2     14.0 5.28e11  3.75e7    18.3
##  9 Argent…  2002       1 Eduard… Mascul…   -2.01    25.0 4.70e11  3.79e7    17.9
## 10 Argent…  2002       2 Eduard… Mascul…  -20.1     25.0 4.70e11  3.79e7    17.9
## # … with 1,010 more rows, 5 more variables: crecimiento_pib <dbl>,
## #   log_pib <dbl>, pib_per_capita <dbl>, aprobacion_media <dbl>,
## #   diferencia_aprobacion <dbl>, and abbreviated variable names ¹​trimestre,
## #   ²​presidente, ³​presidente_genero, ⁴​aprobacion_neta, ⁵​corrupcion, ⁶​poblacion,
## #   ⁷​desempleo
## # ℹ Use `print(n = ...)` to see more rows, and `colnames()` to see all variable names

Todas estas operaciones pueden hacerse con la dupla de comandos group_by + mutate de una manera más rapida y sencilla:

aprobacion %>% group_by(presidente) %>% 
  mutate(aprobacion_media=mean(aprobacion_neta), 
         diferencia=aprobacion_media-aprobacion_neta)

## # A tibble: 1,020 × 15
## # Groups:   presidente [70]
##    pais     anio trime…¹ presi…² presi…³ aprob…⁴ corru…⁵     pib pobla…⁶ desem…⁷
##    <chr>   <dbl>   <dbl> <chr>   <chr>     <dbl>   <dbl>   <dbl>   <dbl>   <dbl>
##  1 Argent…  2000       1 Fernan… Mascul…   40.1     14.0 5.52e11  3.71e7    15  
##  2 Argent…  2000       2 Fernan… Mascul…   16.4     14.0 5.52e11  3.71e7    15  
##  3 Argent…  2000       3 Fernan… Mascul…   24.0     14.0 5.52e11  3.71e7    15  
##  4 Argent…  2000       4 Fernan… Mascul…  -18.3     14.0 5.52e11  3.71e7    15  
##  5 Argent…  2001       1 Fernan… Mascul…   -6.97    14.0 5.28e11  3.75e7    18.3
##  6 Argent…  2001       2 Fernan… Mascul…  -20.1     14.0 5.28e11  3.75e7    18.3
##  7 Argent…  2001       3 Fernan… Mascul…  -19.4     14.0 5.28e11  3.75e7    18.3
##  8 Argent…  2001       4 Fernan… Mascul…  -23.2     14.0 5.28e11  3.75e7    18.3
##  9 Argent…  2002       1 Eduard… Mascul…   -2.01    25.0 4.70e11  3.79e7    17.9
## 10 Argent…  2002       2 Eduard… Mascul…  -20.1     25.0 4.70e11  3.79e7    17.9
## # … with 1,010 more rows, 5 more variables: crecimiento_pib <dbl>,
## #   log_pib <dbl>, pib_per_capita <dbl>, aprobacion_media <dbl>,
## #   diferencia <dbl>, and abbreviated variable names ¹​trimestre, ²​presidente,
## #   ³​presidente_genero, ⁴​aprobacion_neta, ⁵​corrupcion, ⁶​poblacion, ⁷​desempleo
## # ℹ Use `print(n = ...)` to see more rows, and `colnames()` to see all variable names
…
